﻿{
  "Group": "Payment methods",
  "FriendlyName": "Payrexx",
  "SystemName": "Payments.Payrexx",
  "Version": "1.00",
  "SupportedVersions": [ "4.10" ],
  "Author": "nopCommerce team",
  "DisplayOrder": 1,
  "FileName": "Nop.Plugin.Payments.Payrexx.dll",
  "Description": "This plugin allows paying with Payrexx payment gateway"
}