﻿{
  "Group": "Shipping rate computation",
  "FriendlyName": "Pakke  ",
  "SystemName": "Shipping.Pakke",
  "Version": "1.1",
  "SupportedVersions": [ "4.10" ],
  "Author": "Jesús González Martínez",
  "DisplayOrder": 1,
  "FileName": "Nop.Plugin.Shipping.Pakke.dll",
  "Description": "Este plugin ofrece calculo de envios por Pakke"
}