﻿{
  "Group": "Payment methods",
  "FriendlyName": "Open Pay Cards",
  "SystemName": "Payments.OpenPayCards",
  "Version": "1.3.0",
  "SupportedVersions": [ "4.10" ],
  "Author": "Jesus Gonzalez",
  "DisplayOrder": 1,
  "FileName": "Nop.Plugin.Payments.OpenPayCards.dll",
  "Description": "This plugin allows paying with credit /debic cards using OpenPay "
}